5667	5728	6283	4558	7084	5482	3819	6283	10164	6344
4496	5112	5051	5482	5790	7084	3511	5236	5174	5913
6283	6160	4804	6591	5544	4989	4004	4373	5605	4681
6098	5544	8254	6652	4743	5667	6529	3511	5359	7638
7145	5605	8501	4681	7885	6406	6468	6776	4743	3819
4743	4312	4928	4620	4804	4928	4004	6652	8008	5297
6344	9055	5544	5051	6283	4989	7330	7330	5728	5790
4620	7022	5297	6283	9917	5975	9363	5790	6468	5790
3757	4250	8254	4373	6160	6406	5667	3819	5790	11950
6591	5913	7761	5112	5605	6283	6960	4928	4127	8069
6652	5482	7022	6160	6837	5544	5236	6221	6283	7330
6221	6837	5728	7392	5975	4743	4373	6283	4558	8193
6714	5236	5236	7515	4804	4866	5236	4681	6714	4804
5790	6776	4681	4004	5051	5297	5359	5667	5913	6098
6283	5544	6652	4866	5174	8008	5236	3942	6036	6406
3696	6406	5913	4620	3264	5297	8131	5236	7576	6221
5605	6529	3942	7022	4681	3757	6160	9856	5913	7576
5112	6344	6160	4681	7145	5420	4435	4250	4681	5544
